mini/01_max2/tb.vcd
$date
	Thu Jun 16 13:10:45 2022
$end
$version
	Icarus Verilog
$end
$timescale
	1ns
$end
$scope module tb $end
$var wire 8 ! in [7:0] $end
$var wire 1 " we $end
$var wire 8 # out [7:0] $end
$var wire 16 $ address [15:0] $end
$var reg 1 % clock $end
$var reg 1 & clock_25 $end
$var reg 1 ' clock_50 $end
$scope module core_inst $end
$var wire 1 & clock $end
$var wire 1 ( half $end
$var wire 8 ) in [7:0] $end
$var wire 1 * locked $end
$var wire 1 + overa $end
$var wire 1 , overs $end
$var wire 1 - reset_n $end
$var wire 1 . zero $end
$var wire 1 / sign $end
$var wire 1 0 par $end
$var wire 3 1 condition [2:0] $end
$var wire 1 2 carry $end
$var wire 16 3 address [15:0] $end
$var reg 8 4 a [7:0] $end
$var reg 4 5 alu [3:0] $end
$var reg 8 6 alu_f [7:0] $end
$var reg 9 7 alu_r [8:0] $end
$var reg 8 8 b [7:0] $end
$var reg 1 9 bus $end
$var reg 8 : c [7:0] $end
$var reg 16 ; cursor [15:0] $end
$var reg 8 < d [7:0] $end
$var reg 8 = e [7:0] $end
$var reg 8 > f [7:0] $end
$var reg 8 ? h [7:0] $end
$var reg 8 @ l [7:0] $end
$var reg 3 A m [2:0] $end
$var reg 8 B opcode [7:0] $end
$var reg 8 C out [7:0] $end
$var reg 16 D pc [15:0] $end
$var reg 16 E sp [15:0] $end
$var reg 3 F t [2:0] $end
$var reg 8 G wb [7:0] $end
$var reg 1 " we $end
$upscope $end
$upscope $end
$enddefinitions $end
#0
$dumpvars
b0 G
b0 F
b0 E
b0 D
b0 C
b0 B
b0 A
b0 @
b0 ?
b0 >
b0 =
b0 <
b0 ;
b0 :
09
b0 8
b0 7
b1000000 6
b0 5
b0 4
b0 3
02
b0 1
10
0/
1.
1-
0,
0+
1*
b1 )
0(
0'
0&
0%
b0 $
b0 #
0"
b1 !
$end
#5
1%
#10
0%
1'
#15
1%
#20
b1010010 !
b1010010 )
b1 $
b1 3
b1 D
b1 B
b1 F
0%
0'
1&
#25
1%
#30
0%
1'
#35
1%
#40
0%
0'
0&
#45
1%
#50
0%
1'
#55
1%
#60
0.
00
0(
b1010010 7
b0 6
b10010 !
b10010 )
b10 $
b10 3
b1010010 G
b10 D
b1 A
0%
0'
1&
#65
1%
#70
0%
1'
#75
1%
#80
0%
0'
0&
#85
1%
#90
0%
1'
#95
1%
#100
b10001 !
b10001 )
b11 $
b11 3
b10010 8
b1010010 :
b11 D
b0 F
0%
0'
1&
#105
1%
#110
0%
1'
#115
1%
#120
0%
0'
0&
#125
1%
#130
0%
1'
#135
1%
#140
1(
1+
1/
12
b10111001 6
b110101110 7
b100011 !
b100011 )
b100 $
b100 3
b10 5
b100 D
b10001 B
b0 A
b1 F
0%
0'
1&
#145
1%
#150
0%
1'
#155
1%
#160
0%
0'
0&
#165
1%
#170
0%
1'
#175
1%
#180
10
1(
b111011101 7
b10011001 6
b1000100 !
b1000100 )
b101 $
b101 3
b100011 G
b101 D
b1 A
0%
0'
1&
#185
1%
#190
0%
1'
#195
1%
#200
0%
0'
0&
#205
1%
#210
0%
1'
#215
1%
#220
b100001 !
b100001 )
b110 $
b110 3
b1000100 <
b100011 =
b110 D
b0 F
0%
0'
1&
#225
1%
#230
0%
1'
#235
1%
#240
0%
0'
0&
#245
1%
#250
0%
1'
#255
1%
#260
0(
0+
1.
0/
02
b0 7
b1010100 6
b1000010 !
b1000010 )
b111 $
b111 3
b100 5
b111 D
b100001 B
b0 A
b1 F
0%
0'
1&
#265
1%
#270
0%
1'
#275
1%
#280
0%
0'
0&
#285
1%
#290
0%
1'
#295
1%
#300
b1010100 6
b110101 !
b110101 )
b1000 $
b1000 3
b1000010 G
b1000 D
b1 A
0%
0'
1&
#305
1%
#310
0%
1'
#315
1%
#320
0%
0'
0&
#325
1%
#330
0%
1'
#335
1%
#340
b110001 !
b110001 )
b1001 $
b1001 3
b110101 ?
b1000010 @
b1001 D
b0 F
0%
0'
1&
#345
1%
#350
0%
1'
#355
1%
#360
0%
0'
0&
#365
1%
#370
0%
1'
#375
1%
#380
0.
b1000010 7
b100 6
b1010010 !
b1010010 )
b1010 $
b1010 3
b110 5
b1010 D
b110001 B
b0 A
b1 F
0%
0'
1&
#385
1%
#390
0%
1'
#395
1%
#400
0%
0'
0&
#405
1%
#410
0%
1'
#415
1%
#420
00
0(
b1010010 7
b0 6
b1100110 !
b1100110 )
b1011 $
b1011 3
b1010010 G
b1011 D
b1 A
0%
0'
1&
#425
1%
#430
0%
1'
#435
1%
#440
0%
0'
0&
#445
1%
#450
0%
1'
#455
1%
#460
b0 !
b0 )
b1100 $
b1100 3
b110011001010010 E
b1100 D
b0 F
0%
0'
1&
#465
1%
#470
0%
1'
#475
1%
#480
0%
0'
0&
#485
1%
#490
0%
1'
#495
1%
#500
bx !
bx )
b1101 $
b1101 3
b0 5
b1101 D
b0 B
b0 A
b1 F
0%
0'
1&
